TheList — thelist • raadfiles
…
csv is something else e.g. list_fmp_data.csv

txt is probably just xml, probably only relevant to GDAL and ESRI  list_fmp_data_statewide.txt.xml

Arguments are used to pattern match on different aspects of the file name so that anything can be pulled out.

    Examples

thelist_files()
#> # A tibble: 834 x 2
#>    fullname                                                    root             
#>    <chr>                                                       <chr>            
#>  1 /rdsi/PUBLIC/raad/data/listdata.thelist.tas.gov.au/opendat… /rdsi/PUBLIC/raa…
#>  2 /rdsi/PUBLIC/raad/data/listdata.thelist.tas.gov.au/opendat… /rdsi/PUBLIC/raa…
#>  3 /rdsi/PUBLIC/raad/data/listdata.thelist.tas.gov.au/opendat… /rdsi/PUBLIC/raa…
#>  4 /rdsi/PUBLIC/raad/data/listdata.thelist.tas.gov.au/opendat… /rdsi/PUBLIC/raa…
#>  5 /rdsi/PUBLIC/raad/data/listdata.thelist.tas.gov.au/opendat… /rdsi/PUBLIC/raa…
#>  6 /rdsi/PUBLIC/raad/data/listdata.thelist.tas.gov.au/opendat… /rdsi/PUBLIC/raa…
#>  7 /rdsi/PUBLIC/raad/data/listdata.thelist.tas.gov.au/opendat… /rdsi/PUBLIC/raa…
#>  8 /rdsi/PUBLIC/raad/data/listdata.thelist.tas.gov.au/opendat… /rdsi/PUBLIC/raa…
#>  9 /rdsi/PUBLIC/raad/data/listdata.thelist.tas.gov.au/opendat… /rdsi/PUBLIC/raa…
#> 10 /rdsi/PUBLIC/raad/data/listdata.thelist.tas.gov.au/opendat… /rdsi/PUBLIC/raa…
#> # … with 824 more rows
…
